…
### Questão 3.2

``` r
rnorm(n = 1000, mean = 0, sd = 1) %>% 
  as_tibble %>%
  mutate(probabilidade = funcaoq15(x = value, a = 1.5, 
                                   b = 1, c = 0.2, D = 1.7)) %>% 
  mutate(prob_porc = paste(formato_real_graf(
    values = round(x = probabilidade*100, digits = 2), 
                      nsmall = 2), "%", sep = ""))
```

    ## # A tibble: 1,000 x 3
    ##     value probabilidade prob_porc
    ##     <dbl>         <dbl> <chr>    
    ##  1  0.957       0.473   47,29%   
    ##  2 -0.551       0.0188  1,88%    
    ##  3 -0.462       0.0235  2,35%    
    ##  4  0.451       0.198   19,79%   
    ##  5 -1.20        0.00365 0,36%    
    ##  6  0.359       0.163   16,32%   
    ##  7 -1.08        0.00500 0,50%    
    ##  8 -0.163       0.0490  4,90%    
    ##  9  0.936       0.459   45,93%   
    ## 10 -0.606       0.0164  1,64%    
    ## # ... with 990 more rows
…
